{
    "pagination": {},
    "data": [
        {
            "user": {
                "id": "13341983094",
                "full_name": "Prova",
                "profile_picture": "https://scontent-mrs2-1.cdninstagram.com/vp/200f33c483a596e61cabc95c8f4f97ee/5E1A41F1/t51.2885-19/44884218_345707102882519_2446069589734326272_n.jpg?_nc_ht=scontent-mrs2-1.cdninstagram.com",
                "username": "prova4899"
            },
            "created_time": "1570711635",
            "caption": null,
            "user_has_liked": false,
            "likes": {
                "count": 0
            },
            "tags": [],
            "filter": "Clarendon",
            "comments": {
                "count": 0
            },
            "type": "image",
            "link": "https://www.instagram.com/p/B3cC7buoNkZCQOD8tdWOPiRSZkEdj9oAeiV7N00/",
            "location": null,
            "attribution": null,
            "users_in_photo": []
        },
        {
            "id": "2151607062627434609_13341983094",
            "user": {
                "id": "13341983094",
                "full_name": "Prova",
                "profile_picture": "https://scontent-mrs2-1.cdninstagram.com/vp/200f33c483a596e61cabc95c8f4f97ee/5E1A41F1/t51.2885-19/44884218_345707102882519_2446069589734326272_n.jpg?_nc_ht=scontent-mrs2-1.cdninstagram.com",
                "username": "prova4899"
            },
            "images": {
                "thumbnail": {
                    "width": 150,
                    "height": 150,
                    "url": "https://scontent.cdninstagram.com/vp/8a4e428cb895d0c5971a5e1f4aeb9b7d/5E1C74AA/t51.2885-15/e35/c0.179.1440.1440a/s150x150/71577602_537781150128740_2082632152933270108_n.jpg?_nc_ht=scontent.cdninstagram.com"
                },
                "low_resolution": {
                    "width": 320,
                    "height": 399,
                    "url": "https://scontent.cdninstagram.com/vp/d5e43750e7275ca4556ebf4f46528171/5E26562E/t51.2885-15/e35/p320x320/71577602_537781150128740_2082632152933270108_n.jpg?_nc_ht=scontent.cdninstagram.com"
                },
                "standard_resolution": {
                    "width": 640,
                    "height": 799,
                    "url": "https://scontent.cdninstagram.com/vp/65e4a5845ba8146dbb5cedb49784f038/5E253279/t51.2885-15/sh0.08/e35/p640x640/71577602_537781150128740_2082632152933270108_n.jpg?_nc_ht=scontent.cdninstagram.com"
                }
            },
            "created_time": "1570711571",
            "caption": null,
            "user_has_liked": false,
            "likes": {
                "count": 0
            },
            "tags": [],
            "filter": "Normal",
            "comments": {
                "count": 0
            },
            "type": "image",
            "link": "https://www.instagram.com/p/B3cCzlIIUBxVcEe_7dm-RbbJDaeKRPYcJao6-Q0/",
            "location": null,
            "attribution": null,
            "users_in_photo": []
        }
    ],
    "meta": {
        "code": 200
    }
}

